---
http_interactions:
- request:
    method: get
    uri: https://www.flickr.com/services/rest?api_key=8252019ab01a884b0c2f10e3b94fad19&format=json&method=flickr.photos.search&nojsoncallback=1&per_page=1&text=denverskyline
    body:
      encoding: US-ASCII
      string: ''
    headers:
      User-Agent:
      - Faraday v1.4.2
      Accept-Encoding:
      - gzip;q=1.0,deflate;q=0.6,identity;q=0.3
      Accept:
      - "*/*"
  response:
    status:
      code: 200
      message: OK
    headers:
      Content-Type:
      - application/json
      Content-Length:
      - '238'
      Connection:
      - keep-alive
      Date:
      - Tue, 15 Jun 2021 02:01:18 GMT
      Server:
      - Apache/2.4.46 (Ubuntu)
      Set-Cookie:
      - ccc=%7B%22needsConsent%22%3Afalse%2C%22managed%22%3A0%2C%22changed%22%3A0%2C%22info%22%3A%7B%22cookieBlock%22%3A%7B%22level%22%3A0%2C%22blockRan%22%3A0%7D%7D%7D;
        expires=Thu, 15-Jul-2021 02:01:18 GMT; Max-Age=2592000; path=/; domain=.flickr.com
      X-Content-Type-Options:
      - nosniff
      X-Frame-Options:
      - SAMEORIGIN
      X-Cache:
      - Miss from cloudfront
      Via:
      - 1.1 ca00ba4c25c24b53d9a6d06f6486115a.cloudfront.net (CloudFront)
      X-Amz-Cf-Pop:
      - ATL51-C1
      X-Amz-Cf-Id:
      - Jn8rF5rqW88vWVESz4-Qiq4tgSiwMDzRYgf4VGNmnsHmcsPWqSPs1Q==
    body:
      encoding: UTF-8
      string: '{"photos":{"page":1,"pages":2587,"perpage":1,"total":2587,"photo":[{"id":"51195695366","owner":"34235577@N03","secret":"d8fbfa0360","server":"65535","farm":66,"title":"G9xM2-IMG_8038","ispublic":1,"isfriend":0,"isfamily":0}]},"stat":"ok"}'
  recorded_at: Tue, 15 Jun 2021 02:01:18 GMT
recorded_with: VCR 6.0.0
