---
http_interactions:
- request:
    method: get
    uri: https://www.flickr.com/services/rest?api_key=8252019ab01a884b0c2f10e3b94fad19&format=json&method=flickr.photos.search&nojsoncallback=1&per_page=1&text=denver,%20co
    body:
      encoding: US-ASCII
      string: ''
    headers:
      User-Agent:
      - Faraday v1.4.2
      Accept-Encoding:
      - gzip;q=1.0,deflate;q=0.6,identity;q=0.3
      Accept:
      - "*/*"
  response:
    status:
      code: 200
      message: OK
    headers:
      Content-Type:
      - application/json
      Content-Length:
      - '295'
      Connection:
      - keep-alive
      Date:
      - Wed, 16 Jun 2021 03:46:41 GMT
      Server:
      - Apache/2.4.46 (Ubuntu)
      Set-Cookie:
      - ccc=%7B%22needsConsent%22%3Afalse%2C%22managed%22%3A0%2C%22changed%22%3A0%2C%22info%22%3A%7B%22cookieBlock%22%3A%7B%22level%22%3A0%2C%22blockRan%22%3A0%7D%7D%7D;
        expires=Fri, 16-Jul-2021 03:46:41 GMT; Max-Age=2592000; path=/; domain=.flickr.com
      X-Content-Type-Options:
      - nosniff
      X-Frame-Options:
      - SAMEORIGIN
      X-Cache:
      - Miss from cloudfront
      Via:
      - 1.1 519edd41dd66841269b799c95298a2d0.cloudfront.net (CloudFront)
      X-Amz-Cf-Pop:
      - ATL51-C1
      X-Amz-Cf-Id:
      - rcCjBXPVV49u-ne0fyQVaLhTdMUb02eAls3s050xg0OESkF7HBQYEQ==
    body:
      encoding: UTF-8
      string: '{"photos":{"page":1,"pages":287897,"perpage":1,"total":287897,"photo":[{"id":"51249782114","owner":"167460542@N02","secret":"0acd02cbb6","server":"65535","farm":66,"title":"ADU
        College in Central Park (Stapleton) neighborhood of Denver, CO","ispublic":1,"isfriend":0,"isfamily":0}]},"stat":"ok"}'
  recorded_at: Wed, 16 Jun 2021 03:46:41 GMT
recorded_with: VCR 6.0.0
